DataViz Makeover 2
…
for (i in 2:10){
  import[i,1] <- gsub("(Thousand Dollars)","Import",import[i,1])
  export[i,1] <- gsub("(Thousand Dollars)","Export",export[i,1])
}

swtich rows and columns

import_df <- 
  import %>%
  pivot_longer(-Variables,names_to = 'Time', values_to = 'imports') %>%
  pivot_wider(names_from = Variables, values_from  = imports) 
import_df

# A tibble: 120 x 11
   Time  `European Union~ `Indonesia(Impo~ `Malaysia(Impor~
   <chr>            <dbl>            <dbl>            <dbl>
 1 2011~            3431.          2204746          3860565
 2 2011~            3487.          1568744          3532773
 3 2011~            4492.          2199579          4578128
 4 2011~            4518.          2105377          4311710
 5 2011~            4495.          2213511          3789599
 6 2011~            4315           1947457          4284834
 7 2011~            3414.          2113417          4235909
 8 2011~            4343.          2189242          4317987
 9 2011~            5125.          2036928          3921655
10 2011~            4294.          2016277          4297615
# ... with 110 more rows, and 7 more variables:
#   `Thailand(Import)` <dbl>, `Japan(Import)` <dbl>, `Hong
#   Kong(Import)` <dbl>, `Republic Of Korea(Import)` <dbl>,
#   `Taiwan(Import)` <dbl>, `Mainland China(Import)` <dbl>, `United
#   States(Import)` <dbl>

export_df <- 
  export %>%
  pivot_longer(-Variables,names_to = 'Time', values_to = 'exports') %>%
  pivot_wider(names_from = Variables, values_from  = exports)
export_df

# A tibble: 120 x 11
   Time  `European Union~ `Indonesia(Expo~ `Malaysia(Expor~
   <chr>            <dbl>            <dbl>            <dbl>
 1 2011~            3277.          4782580          4975537
 2 2011~            3340.          3832103          4068292
 3 2011~            3499.          4820233          5424046
 4 2011~            3251.          4255394          5107121
 5 2011~            3152.          4555603          5281074
 6 2011~            3471.          4884538          5643456
 7 2011~            3333.          4903149          5436669
 8 2011~            3282           4815474          5720496
 9 2011~            3566.          5460155          5531211
10 2011~            3023.          5475134          5278617
# ... with 110 more rows, and 7 more variables:
#   `Thailand(Export)` <dbl>, `Japan(Export)` <dbl>, `Hong
#   Kong(Export)` <dbl>, `Republic Of Korea(Export)` <dbl>,
#   `Taiwan(Export)` <dbl>, `Mainland China(Export)` <dbl>, `United
#   States(Export)` <dbl>

change values into same unit

Since the unit of each country or region is different, I use dollars as unit and time thousand dollars or million dollars into the values.

import_df[2] <- import_df[2]*1000000
export_df[2] <- export_df[2]*1000000
for (i in 3:11){
  import_df[i] <- import_df[i]*1000
  export_df[i] <- export_df[i]*1000
}
import_df

# A tibble: 120 x 11
   Time  `European Union~ `Indonesia(Impo~ `Malaysia(Impor~
   <chr>            <dbl>            <dbl>            <dbl>
 1 2011~       3431300000       2204746000       3860565000
 2 2011~       3486600000       1568744000       3532773000
 3 2011~       4492400000       2199579000       4578128000
 4 2011~       4518100000       2105377000       4311710000
 5 2011~       4494700000       2213511000       3789599000
 6 2011~       4315000000       1947457000       4284834000
 7 2011~       3413900000       2113417000       4235909000
 8 2011~       4342800000       2189242000       4317987000
 9 2011~       5124900000       2036928000       3921655000
10 2011~       4293700000       2016277000       4297615000
# ... with 110 more rows, and 7 more variables:
#   `Thailand(Import)` <dbl>, `Japan(Import)` <dbl>, `Hong
#   Kong(Import)` <dbl>, `Republic Of Korea(Import)` <dbl>,
#   `Taiwan(Import)` <dbl>, `Mainland China(Import)` <dbl>, `United
#   States(Import)` <dbl>

export_df

# A tibble: 120 x 11
   Time  `European Union~ `Indonesia(Expo~ `Malaysia(Expor~
   <chr>            <dbl>            <dbl>            <dbl>
 1 2011~       3277100000       4782580000       4975537000
 2 2011~       3340500000       3832103000       4068292000
 3 2011~       3498900000       4820233000       5424046000
 4 2011~       3251100000       4255394000       5107121000
 5 2011~       3151500000       4555603000       5281074000
 6 2011~       3471300000       4884538000       5643456000
 7 2011~       3333300000       4903149000       5436669000
 8 2011~       3282000000       4815474000       5720496000
 9 2011~       3565800000       5460155000       5531211000
10 2011~       3022700000       5475134000       5278617000
# ... with 110 more rows, and 7 more variables:
#   `Thailand(Export)` <dbl>, `Japan(Export)` <dbl>, `Hong
#   Kong(Export)` <dbl>, `Republic Of Korea(Export)` <dbl>,
#   `Taiwan(Export)` <dbl>, `Mainland China(Export)` <dbl>, `United
#   States(Export)` <dbl>
…
