Assignment
…
gps$Timestamp <- date_time_parse(gps$Timestamp,
                                 zone = '',
                                 format = "%m/%d/%Y %H:%M:%S")
gps$day <- as.factor(get_day(gps$Timestamp))
gps$id <- as_factor(gps$id)

A brief overview to see the distribution of location in cc_data.

cc_data %>%
    group_by(location) %>%
    summarise(count=n()) %>%
    arrange(count)

# A tibble: 34 x 2
   location                   count
   <chr>                      <int>
 1 Daily Dealz                    1
 2 Frank's Fuel                   2
 3 U-Pump                         2
 4 Abila Scrapyard                4
 5 Octavio's Office Supplies      4
 6 Ahaggo Museum                  6
 7 Kronos Pipe and Irrigation     6
 8 Maximum Iron and Steel         6
 9 Coffee Shack                   8
10 Desafio Golf Course            8
# ... with 24 more rows
…
7
Brewve Been Served

3. Question answering

Q1. Anomalies

First, we see how many payments that used loyalty cards (gourp by loyalty card) and its credit card.

comb %>%
  group_by(loyaltynum) %>%
  count(last4ccnum)

# A tibble: 114 x 3
# Groups:   loyaltynum [55]
   loyaltynum last4ccnum     n
   <chr>           <dbl> <int>
 1 L1107            2681    20
 2 L1485            3853    19
 3 L1682            7253    18
 4 L2070            4795     1
 5 L2070            8332    27
 6 L2169            4434    22
 7 L2247            5368    23
 8 L2247            7889     1
 9 L2343            8202    19
10 L2459            5010     5
# ... with 104 more rows
…
gps_path <- gps_sf %>%
  group_by(id,day) %>%
  summarize(m = mean(Timestamp),
            do_union = FALSE) %>%
  st_cast("LINESTRING")

gps_path

Simple feature collection with 508 features and 3 fields
Geometry type: LINESTRING
Dimension:     XY
Bounding box:  xmin: 24.82509 ymin: 36.04802 xmax: 24.90849 ymax: 36.08996
Geodetic CRS:  WGS 84
# A tibble: 508 x 4
# Groups:   id [40]
   id    day   m                                              geometry
   <fct> <fct> <dttm>                                 <LINESTRING []>
 1 1     6     2014-01-06 15:02:08 (24.88258 36.06646, 24.88259 36.06~
 2 1     7     2014-01-07 12:41:07 (24.87957 36.04803, 24.87957 36.04~
 3 1     8     2014-01-08 14:35:25 (24.88265 36.06643, 24.88266 36.06~
 4 1     9     2014-01-09 12:04:45 (24.88261 36.06646, 24.88257 36.06~
 5 1     10    2014-01-10 16:04:58 (24.88265 36.0665, 24.88261 36.066~
 6 1     11    2014-01-11 16:18:32 (24.88258 36.06651, 24.88246 36.06~
 7 1     12    2014-01-12 13:31:05 (24.88259 36.06643, 24.8824 36.066~
 8 1     13    2014-01-13 13:46:15 (24.88265 36.06642, 24.8826 36.066~
 9 1     14    2014-01-14 14:04:23 (24.88261 36.06644, 24.88262 36.06~
10 1     15    2014-01-15 15:33:54 (24.88263 36.06647, 24.88257 36.06~
# ... with 498 more rows
…
34
Alberts Fine Clothing,Ahaggo Museum,U-Pump,Jacks Magical Beans,Brewve Been Served,Roberts and Sons,General Grocer,Chostus Hotel,Guys Gyros

35
Alberts Fine Clothing,Ahaggo Museum,Chostus Hotel,Roberts and Sons,Brewve Been Served,General Grocer,U-Pump,Jacks Magical Beans

Here we look at the location that each loyalty card owner would frequently go.

comb %>%
  filter(!is.na(loyaltynum)) %>%
  group_by(loyaltynum) %>%
  count(location)

# A tibble: 339 x 3
# Groups:   loyaltynum [54]
   loyaltynum location                      n
   <chr>      <chr>                     <int>
 1 L1107      Abila Zacharo                 2
 2 L1107      Gelatogalore                  3
 3 L1107      Hallowed Grounds              6
 4 L1107      Hippokampos                   1
 5 L1107      Ouzeri Elian                  7
 6 L1107      Shoppers' Delight             1
 7 L1485      Brew've Been Served           6
 8 L1485      Frank's Fuel                  1
 9 L1485      Frydos Autosupply n' More     2
10 L1485      Gelatogalore                  1
# ... with 329 more rows
…
